{
  "AXtManalBLack" : {
    "0xE06A" : "0x0628",
    "0xE085" : "0x0000",
    "0xE01D" : "0x0669",
    "0xE038" : "0x0634",
    "0xE042" : "0x0000",
    "0xE0A9" : "0x0649",
    "0xE06E" : "0x062A",
    "0xE089" : "0x0637",
    "0xE02B" : "0x0627",
    "0xE046" : "0x0642",
    "0xE003" : "0x0020",
    "0xE093" : "0x063A",
    "0xE07C" : "0x0630",
    "0xE097" : "0x0642",
    "0xE02F" : "0x062B",
    "0xE054" : "0x0000",
    "0xE011" : "0x0000",
    "0xE08A" : "0x0638",
    "0xE03D" : "0x0639",
    "0xE062" : "0x062F",
    "0xE015" : "0x0661",
    "0xE0AE" : "0x0636",
    "0xE08E" : "0x0639",
    "0xE04B" : "0x0647",
    "0xE066" : "0x0000",
    "0xE019" : "0x0665",
    "0xE070" : "0x062B",
    "0xE0BC" : "0x0000",
    "0xE09C" : "0x0644",
    "0xE04F" : "0x0000",
    "0xE074" : "0x062C",
    "0xE00C" : "0x0000",
    "0xE027" : "0x0654",
    "0xE031" : "0x062D",
    "0xE0A2" : "0x0646",
    "0xE078" : "0x062E",
    "0xE082" : "0x0634",
    "0xE01A" : "0x0666",
    "0xE035" : "0x0631",
    "0xE0A6" : "0x0647",
    "0xE06B" : "0x0629",
    "0xE086" : "0x0000",
    "0xE01E" : "0x0000",
    "0xE039" : "0x0635",
    "0xE090" : "0x063A",
    "0xE06F" : "0x062B",
    "0xE094" : "0x0641",
    "0xE02C" : "0x0628",
    "0xE047" : "0x0643",
    "0xE051" : "0x0000",
    "0xE07D" : "0x0631",
    "0xE098" : "0x0642",
    "0xE03A" : "0x0636",
    "0xE055" : "0x0000",
    "0xE012" : "0x0000",
    "0xE0AB" : "0x064A",
    "0xE0C6" : "0x0000",
    "0xE08B" : "0x0638",
    "0xE03E" : "0x063A",
    "0xE059" : "0x0000",
    "0xE016" : "0x0662",
    "0xE08F" : "0x0639",
    "0xE04C" : "0x0648",
    "0xE067" : "0x0627",
    "0xE071" : "0x062B",
    "0xE0BD" : "0x0000",
    "0xE09D" : "0x0644",
    "0xE075" : "0x062D",
    "0xE00D" : "0x0000",
    "0xE028" : "0x0621",
    "0xE032" : "0x062E",
    "0xE0A3" : "0x0646",
    "0xE0CB" : "0x0000",
    "0xE05E" : "0x0000",
    "0xE079" : "0x062E",
    "0xE01B" : "0x0667",
    "0xE036" : "0x0632",
    "0xE083" : "0x0635",
    "0xE0A7" : "0x0647",
    "0xE06C" : "0x062A",
    "0xE087" : "0x0637",
    "0xE01F" : "0x0000",
    "0xE044" : "0x0000",
    "0xE091" : "0x063A",
    "0xE07A" : "0x062E",
    "0xE095" : "0x0641",
    "0xE02D" : "0x0629",
    "0xE048" : "0x0644",
    "0xE052" : "0x0000",
    "0xE0B9" : "0xFEFB",
    "0xE099" : "0x0643",
    "0xE03B" : "0x0637",
    "0xE056" : "0x0000",
    "0xE009" : "0x0000",
    "0xE013" : "0x0000",
    "0xE0AC" : "0x064A",
    "0xE08C" : "0x0638",
    "0xE064" : "0x0000",
    "0xE017" : "0x0663",
    "0xE021" : "0x0000",
    "0xE0BA" : "0x0000",
    "0xE0D5" : "0x0000",
    "0xE09A" : "0x0643",
    "0xE04D" : "0x0649",
    "0xE068" : "0x0628",
    "0xE025" : "0x0000",
    "0xE072" : "0x062C",
    "0xE0A0" : "0x0645",
    "0xE09E" : "0x0644",
    "0xE076" : "0x062D",
    "0xE029" : "0x0655",
    "0xE033" : "0x062F",
    "0xE0A4" : "0x0646",
    "0xE05F" : "0x0000",
    "0xE01C" : "0x0668",
    "0xE037" : "0x0633",
    "0xE0DA" : "0x0000",
    "0xE0A8" : "0x0648",
    "0xE06D" : "0x062A",
    "0xE088" : "0x0637",
    "0xE02A" : "0x0000",
    "0xE045" : "0x0641",
    "0xE092" : "0x063A",
    "0xE0B6" : "0x0000",
    "0xE0C0" : "0x0000",
    "0xE096" : "0x0642",
    "0xE02E" : "0x062A",
    "0xE049" : "0x0645",
    "0xE010" : "0x0000",
    "0xE053" : "0x0000",
    "0xE07F" : "0x0632",
    "0xE03C" : "0x0638",
    "0xE057" : "0x0000",
    "0xE014" : "0x0660",
    "0xE0AD" : "0x064A",
    "0xE0D2" : "0xFEFC",
    "0xE08D" : "0x0639",
    "0xE04A" : "0x0646",
    "0xE018" : "0x0664",
    "0xE0BB" : "0x0000",
    "0xE09B" : "0x0643",
    "0xE04E" : "0x064A",
    "0xE069" : "0x0628",
    "0xE026" : "0x0000",
    "0xE030" : "0x062C",
    "0xE073" : "0x062C",
    "0xE0A1" : "0x0645",
    "0xE09F" : "0x0645",
    "0xE077" : "0x062D",
    "0xE081" : "0x0633",
    "0xE034" : "0x0630",
    "0xE0A5" : "0x0647"
  },
  "AXtManalBold" : {
    "0xE02A" : "0x0627",
    "0xE087" : "0x0639",
    "0xE013" : "0x0000",
    "0xE019" : "0x0666",
    "0xE044" : "0x0644",
    "0xE08C" : "0x0641",
    "0xE0A4" : "0x064A",
    "0xE075" : "0x062E",
    "0xE01E" : "0x0000",
    "0xE032" : "0x062F",
    "0xE04F" : "0x0000",
    "0xE07A" : "0x0633",
    "0xE038" : "0x0635",
    "0xE063" : "0x0628",
    "0xE00C" : "0x0000",
    "0xE069" : "0x062A",
    "0xE094" : "0x0643",
    "0xE0C9" : "0xFEFC",
    "0xE03D" : "0x063A",
    "0xE026" : "0x0654",
    "0xE051" : "0x0000",
    "0xE0B1" : "0x0000",
    "0xE057" : "0x0000",
    "0xE082" : "0x0637",
    "0xE09F" : "0x0647",
    "0xE02B" : "0x0628",
    "0xE088" : "0x0639",
    "0xE014" : "0x0661",
    "0xE045" : "0x0645",
    "0xE070" : "0x062D",
    "0xE08D" : "0x0641",
    "0xE0A5" : "0x064A",
    "0xE04A" : "0x064A",
    "0xE008" : "0x0000",
    "0xE033" : "0x0630",
    "0xE07B" : "0x0634",
    "0xE039" : "0x0636",
    "0xE064" : "0x0629",
    "0xE095" : "0x0644",
    "0xE027" : "0x0621",
    "0xE052" : "0x0000",
    "0xE06F" : "0x062C",
    "0xE09A" : "0x0645",
    "0xE0B2" : "0x0000",
    "0xE058" : "0x0000",
    "0xE083" : "0x0638",
    "0xE0B8" : "0x0000",
    "0xE02C" : "0x0629",
    "0xE089" : "0x063A",
    "0xE015" : "0x0662",
    "0xE040" : "0x0000",
    "0xE05D" : "0x062F",
    "0xE0A0" : "0x0647",
    "0xE046" : "0x0646",
    "0xE071" : "0x062D",
    "0xE08E" : "0x0641",
    "0xE0A6" : "0x0636",
    "0xE0D1" : "0x0000",
    "0xE01A" : "0x0667",
    "0xE077" : "0x0630",
    "0xE003" : "0x0020",
    "0xE04B" : "0x0000",
    "0xE034" : "0x0631",
    "0xE07C" : "0x0635",
    "0xE065" : "0x0629",
    "0xE090" : "0x0642",
    "0xE096" : "0x0644",
    "0xE022" : "0x0000",
    "0xE06A" : "0x062B",
    "0xE028" : "0x0655",
    "0xE053" : "0x0000",
    "0xE09B" : "0x0646",
    "0xE0B3" : "0x0000",
    "0xE059" : "0x0000",
    "0xE084" : "0x0638",
    "0xE010" : "0x0000",
    "0xE0B9" : "0x0000",
    "0xE02D" : "0x062A",
    "0xE016" : "0x0663",
    "0xE041" : "0x0641",
    "0xE0A1" : "0x0648",
    "0xE047" : "0x0647",
    "0xE072" : "0x062D",
    "0xE08F" : "0x0642",
    "0xE01B" : "0x0668",
    "0xE078" : "0x0631",
    "0xE04C" : "0x0000",
    "0xE035" : "0x0632",
    "0xE066" : "0x062A",
    "0xE091" : "0x0642",
    "0xE0C6" : "0x0000",
    "0xE00F" : "0x0000",
    "0xE03A" : "0x0637",
    "0xE097" : "0x0644",
    "0xE06B" : "0x062B",
    "0xE029" : "0x0000",
    "0xE054" : "0x0000",
    "0xE09C" : "0x0646",
    "0xE0B4" : "0x0000",
    "0xE085" : "0x0638",
    "0xE011" : "0x0000",
    "0xE02E" : "0x062B",
    "0xE017" : "0x0664",
    "0xE042" : "0x0642",
    "0xE05F" : "0x0630",
    "0xE08A" : "0x063A",
    "0xE0A2" : "0x0649",
    "0xE048" : "0x0648",
    "0xE073" : "0x062E",
    "0xE01C" : "0x0669",
    "0xE079" : "0x0632",
    "0xE030" : "0x062D",
    "0xE04D" : "0x0000",
    "0xE036" : "0x0633",
    "0xE061" : "0x0000",
    "0xE0AD" : "0x0000",
    "0xE07E" : "0x062F",
    "0xE0C1" : "0x0000",
    "0xE067" : "0x062A",
    "0xE092" : "0x0643",
    "0xE03B" : "0x0638",
    "0xE098" : "0x0645",
    "0xE024" : "0x0621",
    "0xE06C" : "0x062B",
    "0xE055" : "0x0000",
    "0xE080" : "0x0637",
    "0xE0CC" : "0x0000",
    "0xE09D" : "0x0646",
    "0xE0B5" : "0x0000",
    "0xE086" : "0x0639",
    "0xE012" : "0x0000",
    "0xE02F" : "0x062C",
    "0xE05A" : "0x0000",
    "0xE018" : "0x0665",
    "0xE043" : "0x0643",
    "0xE08B" : "0x063A",
    "0xE0A3" : "0x064A",
    "0xE049" : "0x0649",
    "0xE074" : "0x062E",
    "0xE01D" : "0x0000",
    "0xE031" : "0x062E",
    "0xE04E" : "0x0000",
    "0xE037" : "0x0634",
    "0xE062" : "0x0627",
    "0xE07F" : "0x0649",
    "0xE0C2" : "0x0000",
    "0xE00B" : "0x0000",
    "0xE068" : "0x062A",
    "0xE093" : "0x0643",
    "0xE0C8" : "0x0000",
    "0xE03C" : "0x0639",
    "0xE099" : "0x0645",
    "0xE025" : "0x0000",
    "0xE050" : "0x0000",
    "0xE06D" : "0x062C",
    "0xE0B0" : "0xFEFB",
    "0xE056" : "0x0000",
    "0xE081" : "0x0637",
    "0xE0CD" : "0x0000",
    "0xE09E" : "0x0647"
  },
  "AXtRana" : {
    "0x0647" : "0x0647",
    "0x0641" : "0x0641",
    "0x0633" : "0x0000",
    "0xFFFD" : "0x0633",
    "0x0631" : "0x0631"
  },
  "GEEast-ExtraBold" : {
    "0x0641" : "0x0641",
    "0xFE9C" : "0x062B",
    "0xFE9E" : "0x062C",
    "0x0645" : "0x0645",
    "0x0647" : "0x0647",
    "0xFEA3" : "0x062D",
    "0xFEB0" : "0x0632",
    "0x062A" : "0x062A",
    "0xFEB2" : "0x0633",
    "0x062C" : "0x062C",
    "0xFEB4" : "0x0633",
    "0x062E" : "0x062E",
    "0xFED0" : "0x063A",
    "0x064A" : "0x064A",
    "0xFED2" : "0x0641",
    "0xFED4" : "0x0641",
    "0xFEE3" : "0x0645",
    "0xFEAA" : "0x062F",
    "0xFED8" : "0x0642",
    "0xFE90" : "0x0628",
    "0xFEE7" : "0x0646",
    "0xFEF2" : "0x064A",
    "0xFE92" : "0x0628",
    "0xFEAE" : "0x0631",
    "0xFEF4" : "0x064A",
    "0xFE94" : "0x062A",
    "0xFECA" : "0x0639",
    "0xFECC" : "0x0639",
    "0xFE98" : "0x062A",
    "0xFEDB" : "0x0643",
    "0xFEDF" : "0x0644",
    "0xFEEC" : "0x0647",
    "0x0622" : "0x0622",
    "0xFEEE" : "0x0648",
    "0xFEFB" : "0xFEFB",
    "0x0631" : "0x0631",
    "0xFE8E" : "0x0627",
    "0xFE9B" : "0x062B",
    "0x0628" : "0x0628",
    "0x0642" : "0x0642",
    "0x0637" : "0x0637",
    "0x0644" : "0x0644",
    "0xFE9F" : "0x062C",
    "0x0646" : "0x0646",
    "0xFEA0" : "0x062C",
    "0x0648" : "0x0648",
    "0xFEA4" : "0x062D",
    "0xFEB3" : "0x0633",
    "0xFEC0" : "0x0636",
    "0xFEA8" : "0x062E",
    "0x062F" : "0x062F",
    "0xFEB7" : "0x0634",
    "0xFEC4" : "0x0637",
    "0xFED3" : "0x0641",
    "0xFEE0" : "0x0644",
    "0xFEE2" : "0x0645",
    "0xFED7" : "0x0642",
    "0xFEE4" : "0x0645",
    "0xFEE6" : "0x0646",
    "0xFEF3" : "0x064A",
    "0xFE84" : "0xFE84",
    "0xFE91" : "0x0628",
    "0xFEBA" : "0x0635",
    "0xFEE8" : "0x0646",
    "0xFEBC" : "0x0635",
    "0xFECB" : "0x0639",
    "0xFEDC" : "0x0643",
    "0xFEDE" : "0x0644",
    "0xFEEB" : "0x0647",
    "0x0621" : "0x0621",
    "0x0623" : "0x0623",
    "0xFE8B" : "0xFE8B",
    "0xFEFC" : "0xFEFB",
    "0x0632" : "0x0632",
    "0xFE9A" : "0x062B",
    "0x0627" : "0x0627"
  },
  "AXtTRaditionalBold" : {
    "0xE068" : "0x0628",
    "0xE08D" : "0x0639",
    "0xE0A2" : "0x0646",
    "0xE03E" : "0x063A",
    "0xE097" : "0x0642",
    "0xE0A5" : "0x0647",
    "0xE045" : "0x0641",
    "0xE06A" : "0x0628",
    "0xE0A8" : "0x0648",
    "0xE0CA" : "0x0000",
    "0xE048" : "0x0644",
    "0xE06D" : "0x062A",
    "0xE0CD" : "0x0000",
    "0xE0D4" : "0x0000",
    "0xE074" : "0x062C",
    "0xE09C" : "0x0644",
    "0xE0AA" : "0x064A",
    "0xE025" : "0x0621",
    "0xE04A" : "0x0646",
    "0xE09F" : "0x0645",
    "0xE0AD" : "0x0636",
    "0xE028" : "0x0621",
    "0xE0B7" : "0xFEFB",
    "0xE057" : "0x0000",
    "0xE07C" : "0x0630",
    "0xE02A" : "0x0000",
    "0xE07F" : "0x0632",
    "0xE083" : "0x0635",
    "0xE031" : "0x062D",
    "0xE02D" : "0x0629",
    "0xE086" : "0x0000",
    "0xE034" : "0x0630",
    "0xE037" : "0x0633",
    "0xE0BF" : "0x0000",
    "0xE05F" : "0x0000",
    "0xE011" : "0x0000",
    "0xE0C9" : "0x0000",
    "0xE069" : "0x0628",
    "0xE08E" : "0x0639",
    "0xE0A0" : "0x0645",
    "0xE03C" : "0x0638",
    "0xE0A3" : "0x0646",
    "0xE098" : "0x0642",
    "0xE0A6" : "0x0647",
    "0xE046" : "0x0642",
    "0xE06B" : "0x0629",
    "0xE0A9" : "0x0649",
    "0xE049" : "0x0645",
    "0xE06E" : "0x062A",
    "0xE072" : "0x062C",
    "0xE075" : "0x062D",
    "0xE09A" : "0x0643",
    "0xE01F" : "0x0000",
    "0xE078" : "0x062E",
    "0xE09D" : "0x0644",
    "0xE026" : "0x0000",
    "0xE04B" : "0x0647",
    "0xE0AB" : "0x064A",
    "0xE029" : "0x0655",
    "0xE04E" : "0x064A",
    "0xE055" : "0x0000",
    "0xE0B8" : "0x0000",
    "0xE003" : "0x0020",
    "0xE081" : "0x0633",
    "0xE07D" : "0x0631",
    "0xE02B" : "0x0627",
    "0xE032" : "0x062E",
    "0xE02E" : "0x062A",
    "0xE087" : "0x0637",
    "0xE0BA" : "0x0000",
    "0xE035" : "0x0631",
    "0xE0BD" : "0x0000",
    "0xE0C4" : "0x0000",
    "0xE012" : "0x0000",
    "0xE067" : "0x0627",
    "0xE03A" : "0x0636",
    "0xE093" : "0x063A",
    "0xE0A1" : "0x0645",
    "0xE03D" : "0x0639",
    "0xE096" : "0x0642",
    "0xE0A4" : "0x0646",
    "0xE099" : "0x0643",
    "0xE0A7" : "0x0647",
    "0xE0D0" : "0xFEFC",
    "0xE047" : "0x0643",
    "0xE06C" : "0x062A",
    "0xE0D3" : "0x0000",
    "0xE06F" : "0x062B",
    "0xE076" : "0x062D",
    "0xE09B" : "0x0643",
    "0xE09E" : "0x0644",
    "0xE0AC" : "0x064A",
    "0xE027" : "0x0654",
    "0xE04C" : "0x0648",
    "0xE0B6" : "0x0000",
    "0xE0B9" : "0x0000",
    "0xE082" : "0x0634",
    "0xE030" : "0x062C",
    "0xE02C" : "0x0628",
    "0xE085" : "0x0000",
    "0xE033" : "0x062F",
    "0xE02F" : "0x062B",
    "0xE088" : "0x0637",
    "0xE0BB" : "0x0000",
    "0xE036" : "0x0632",
    "0xE0C2" : "0x0000",
    "0xE0BE" : "0x0000",
    "0xE039" : "0x0635",
    "0xE05E" : "0x0000",
    "0xE062" : "0x0000",
    "0xE010" : "0x0000",
    "0xE08A" : "0x0638"
  },
  "YakoutLinotypeLight-Bold" : {
    "0xE003" : "0x0020",
    "0xE073" : "0x0647",
    "0xE075" : "0x0647",
    "0xE1D9" : "0x0640",
    "0xE2C5" : "0x065C",
    "0xE2D5" : "0x0000",
    "0x0647" : "0x0647",
    "0x06BE" : "0x0647"
  },
  "AXtYousra" : {
    "0xE0A2" : "0x0648",
    "0xE026" : "0x0654",
    "0xE033" : "0x0630",
    "0xE0A4" : "0x064A",
    "0xE028" : "0x0655",
    "0xE0A6" : "0x064A",
    "0xE0B1" : "0xFEFB",
    "0xE037" : "0x0634",
    "0xE044" : "0x0641",
    "0xE046" : "0x0643",
    "0xE048" : "0x0645",
    "0xE064" : "0x0628",
    "0xE071" : "0x062D",
    "0xE02B" : "0x0628",
    "0xE066" : "0x0628",
    "0xE03A" : "0x0637",
    "0xE068" : "0x062A",
    "0xE03C" : "0x0639",
    "0xE04B" : "0x0648",
    "0xE079" : "0x0631",
    "0xE093" : "0x0643",
    "0xE04D" : "0x064A",
    "0xE088" : "0x0639",
    "0xE05E" : "0x062D",
    "0xE06B" : "0x062B",
    "0xE099" : "0x0645",
    "0xE07A" : "0x0632",
    "0xE07C" : "0x0634",
    "0xE09A" : "0x0645",
    "0xE09C" : "0x0646",
    "0xE09E" : "0x0646",
    "0xE030" : "0x062D",
    "0xE032" : "0x062F",
    "0xE034" : "0x0631",
    "0xE0A5" : "0x064A",
    "0xE036" : "0x0633",
    "0xE038" : "0x0635",
    "0xE047" : "0x0644",
    "0xE054" : "0x0000",
    "0xE0D2" : "0x0000",
    "0xE049" : "0x0646",
    "0xE063" : "0x0627",
    "0xE02A" : "0x0627",
    "0xE065" : "0x0628",
    "0xE072" : "0x062D",
    "0xE074" : "0x062E",
    "0xE081" : "0x0637",
    "0xE04A" : "0x0647",
    "0xE078" : "0x062E",
    "0xE087" : "0x0639",
    "0xE0CA" : "0xFEFB",
    "0xE089" : "0x0639",
    "0xE096" : "0x0644",
    "0xE098" : "0x0644",
    "0xE06C" : "0x062B",
    "0xE07B" : "0x0633",
    "0xE07D" : "0x0635",
    "0xE08A" : "0x063A",
    "0xE07F" : "0x0000",
    "0xE08E" : "0x0641",
    "0xE09D" : "0x0646",
    "0xE09F" : "0x0647"
  },
  "AXtAhlam" : {
    "0xE0A0" : "0x0647",
    "0xE031" : "0x062D",
    "0xE026" : "0x0621",
    "0xE033" : "0x062F",
    "0xE028" : "0x0000",
    "0xE035" : "0x0633",
    "0xE0A6" : "0x064A",
    "0xE044" : "0x0642",
    "0xE0A8" : "0x0636",
    "0xE046" : "0x0644",
    "0xE053" : "0x0000",
    "0xE060" : "0x0000",
    "0xE064" : "0x0628",
    "0xE071" : "0x062D",
    "0xE02B" : "0x0629",
    "0xE080" : "0x0000",
    "0xE068" : "0x062A",
    "0xE075" : "0x062E",
    "0xE02F" : "0x062D",
    "0xE03C" : "0x063A",
    "0xE091" : "0x0642",
    "0xE079" : "0x062F",
    "0xE093" : "0x0642",
    "0xE088" : "0x0639",
    "0xE097" : "0x0644",
    "0xE05E" : "0x062D",
    "0xE099" : "0x0644",
    "0xE07C" : "0x0633",
    "0xE07E" : "0x0635",
    "0xE08B" : "0x063A",
    "0xE09A" : "0x0645",
    "0xE003" : "0x0020",
    "0xE010" : "0x0000",
    "0xE09C" : "0x0645",
    "0xE023" : "0x0621",
    "0xE0A1" : "0x0647",
    "0xE025" : "0x0655",
    "0xE0A3" : "0x0647",
    "0xE027" : "0x0654",
    "0xE034" : "0x0630",
    "0xE0A5" : "0x064A",
    "0xE029" : "0x0627",
    "0xE036" : "0x0634",
    "0xE043" : "0x0641",
    "0xE038" : "0x0636",
    "0xE0A7" : "0x064A",
    "0xE0B2" : "0x0000",
    "0xE047" : "0x0645",
    "0xE063" : "0x0627",
    "0xE02A" : "0x0628",
    "0xE065" : "0x0628",
    "0xE02C" : "0x062A",
    "0xE067" : "0x0629",
    "0xE074" : "0x062E",
    "0xE02E" : "0x062C",
    "0xE03B" : "0x0639",
    "0xE081" : "0x0000",
    "0xE04A" : "0x0648",
    "0xE083" : "0x0637",
    "0xE090" : "0x0641",
    "0xE04C" : "0x064A",
    "0xE092" : "0x0642",
    "0xE094" : "0x062D",
    "0xE06E" : "0x062C",
    "0xE07D" : "0x0634",
    "0xE08E" : "0x0641",
    "0xE09B" : "0x0645",
    "0xE09D" : "0x0646",
    "0xE09F" : "0x0646"
  },
  "AXtManal" : {
    "0xE02A" : "0x0627",
    "0xE087" : "0x0639",
    "0xE013" : "0x0660",
    "0xE05B" : "0x0000",
    "0xE019" : "0x0666",
    "0xE044" : "0x0644",
    "0xE08C" : "0x0641",
    "0xE0A4" : "0x064A",
    "0xE075" : "0x062E",
    "0xE01E" : "0x0000",
    "0xE032" : "0x062F",
    "0xE04F" : "0x0000",
    "0xE07A" : "0x0633",
    "0xE038" : "0x0635",
    "0xE063" : "0x0628",
    "0xE00C" : "0x0000",
    "0xE069" : "0x062A",
    "0xE094" : "0x0643",
    "0xE020" : "0x0000",
    "0xE0C9" : "0xFEFC",
    "0xE03D" : "0x063A",
    "0xE026" : "0x0654",
    "0xE051" : "0x0000",
    "0xE06E" : "0x062C",
    "0xE057" : "0x0000",
    "0xE082" : "0x0637",
    "0xE09F" : "0x0647",
    "0xE02B" : "0x0628",
    "0xE088" : "0x0639",
    "0xE014" : "0x0661",
    "0xE05C" : "0x0000",
    "0xE045" : "0x0645",
    "0xE070" : "0x062D",
    "0xE08D" : "0x0641",
    "0xE0A5" : "0x064A",
    "0xE04A" : "0x064A",
    "0xE008" : "0x0000",
    "0xE033" : "0x0630",
    "0xE07B" : "0x0634",
    "0xE039" : "0x0636",
    "0xE064" : "0x0628",
    "0xE095" : "0x0644",
    "0xE03E" : "0x0000",
    "0xE027" : "0x0621",
    "0xE052" : "0x0000",
    "0xE06F" : "0x062C",
    "0xE09A" : "0x0645",
    "0xE058" : "0x0000",
    "0xE083" : "0x0638",
    "0xE02C" : "0x0629",
    "0xE089" : "0x063A",
    "0xE015" : "0x0662",
    "0xE040" : "0x0000",
    "0xE05D" : "0x062F",
    "0xE0A0" : "0x0647",
    "0xE046" : "0x0646",
    "0xE071" : "0x062D",
    "0xE08E" : "0x0641",
    "0xE0A6" : "0x0636",
    "0xE0D1" : "0x0000",
    "0xE01A" : "0x0667",
    "0xE077" : "0x0630",
    "0xE003" : "0x0020",
    "0xE04B" : "0x0000",
    "0xE034" : "0x0631",
    "0xE07C" : "0x0635",
    "0xE065" : "0x0628",
    "0xE090" : "0x0642",
    "0xE00E" : "0x0000",
    "0xE096" : "0x0644",
    "0xE022" : "0x0000",
    "0xE06A" : "0x062B",
    "0xE028" : "0x0655",
    "0xE053" : "0x0000",
    "0xE09B" : "0x0646",
    "0xE059" : "0x0000",
    "0xE084" : "0x0638",
    "0xE010" : "0x0000",
    "0xE02D" : "0x062A",
    "0xE016" : "0x0663",
    "0xE041" : "0x0641",
    "0xE0A1" : "0x0648",
    "0xE047" : "0x0647",
    "0xE072" : "0x062D",
    "0xE08F" : "0x0642",
    "0xE0D2" : "0x0000",
    "0xE01B" : "0x0668",
    "0xE078" : "0x0631",
    "0xE004" : "0x0000",
    "0xE04C" : "0x0000",
    "0xE035" : "0x0632",
    "0xE060" : "0x0649",
    "0xE066" : "0x0629",
    "0xE091" : "0x0642",
    "0xE00F" : "0x0000",
    "0xE03A" : "0x0637",
    "0xE097" : "0x0644",
    "0xE023" : "0x0000",
    "0xE06B" : "0x062B",
    "0xE029" : "0x0000",
    "0xE054" : "0x0000",
    "0xE09C" : "0x0646",
    "0xE085" : "0x0638",
    "0xE011" : "0x0000",
    "0xE02E" : "0x062B",
    "0xE017" : "0x0664",
    "0xE042" : "0x0642",
    "0xE05F" : "0x0000",
    "0xE08A" : "0x063A",
    "0xE0A2" : "0x0649",
    "0xE048" : "0x0648",
    "0xE073" : "0x062E",
    "0xE01C" : "0x0669",
    "0xE079" : "0x0632",
    "0xE030" : "0x062D",
    "0xE04D" : "0x0000",
    "0xE036" : "0x0633",
    "0xE061" : "0x0649",
    "0xE07E" : "0x0000",
    "0xE067" : "0x062A",
    "0xE092" : "0x0643",
    "0xE03B" : "0x0638",
    "0xE098" : "0x0645",
    "0xE024" : "0x0621",
    "0xE06C" : "0x062B",
    "0xE055" : "0x0000",
    "0xE080" : "0x0637",
    "0xE09D" : "0x0646",
    "0xE086" : "0x0639",
    "0xE012" : "0x0000",
    "0xE02F" : "0x062C",
    "0xE05A" : "0x0000",
    "0xE018" : "0x0665",
    "0xE043" : "0x0643",
    "0xE08B" : "0x063A",
    "0xE0A3" : "0x064A",
    "0xE049" : "0x0649",
    "0xE074" : "0x062E",
    "0xE01D" : "0x0000",
    "0xE031" : "0x062E",
    "0xE04E" : "0x0000",
    "0xE037" : "0x0634",
    "0xE062" : "0x0627",
    "0xE07F" : "0x0000",
    "0xE00B" : "0x0000",
    "0xE068" : "0x062A",
    "0xE093" : "0x0643",
    "0xE03C" : "0x0639",
    "0xE099" : "0x0645",
    "0xE025" : "0x0000",
    "0xE050" : "0x0000",
    "0xE06D" : "0x062C",
    "0xE0B0" : "0xFEFB",
    "0xE056" : "0x0000",
    "0xE081" : "0x0637",
    "0xE09E" : "0x0647"
  }
}