{
  "project_info": {
    "project_number": "417673904045",
    "firebase_url": "https://manahij4.firebaseio.com",
    "project_id": "manahij4",
    "storage_bucket": "manahij4.appspot.com"
  },
  "client": [
    {
      "client_info": {
        "mobilesdk_app_id": "1:417673904045:android:0ccc01c60f7540d0",
        "android_client_info": {
          "package_name": "com.semanoor.manahij"
        }
      },
      "oauth_client": [
        {
          "client_id": "417673904045-nbp56sukltaqov1jv7hub0itcv2kojnl.apps.googleusercontent.com",
          "client_type": 3
        },
        {
          "client_id": "417673904045-9sv1gj9u91vh0guuvkf1ufgn9fa9nonp.apps.googleusercontent.com",
          "client_type": 3
        },
        {
          "client_id": "417673904045-1pfaa3rm2gs32utdtfbvllk74q9sj2s3.apps.googleusercontent.com",
          "client_type": 3
        },
        {
          "client_id": "417673904045-264tehfknk6jpnbqeudi79pv7gm3ts73.apps.googleusercontent.com",
          "client_type": 3
        }
      ],
      "api_key": [
        {
          "current_key": "AIzaSyD6XkpErMTPlUt8bkneQU1ZEXF3OZ4DyYI"
        }
      ],
      "services": {
        "analytics_service": {
          "status": 1
        },
        "appinvite_service": {
          "status": 2,
          "other_platform_oauth_client": [
            {
              "client_id": "417673904045-pqhu4t32ojfh7f4naupam5rboe0f81tt.apps.googleusercontent.com",
              "client_type": 2,
              "ios_info": {
                "bundle_id": "mIphone",
                "app_store_id": "509841110"
              }
            },
            {
              "client_id": "417673904045-nbp56sukltaqov1jv7hub0itcv2kojnl.apps.googleusercontent.com",
              "client_type": 3
            }
          ]
        },
        "ads_service": {
          "status": 2
        }
      }
    }
  ],
  "configuration_version": "1"
}